[
  {
    "objectCode":"GENDER",
    "title":"Gender?",
    "difficulty": 1,
    "playerResponseCodes":["gender1","gender2"]
  },
  {
    "objectCode":"SLEEP_WHEN",
    "title":"Last time you slept?",
    "difficulty": 1,
    "playerResponseCodes":["sleepwhen1","sleepwhen2", "sleepwhen3"]
  },
  {
    "objectCode":"SOCIABLE",
    "title":"Comfortable around people?",
    "difficulty": 1,
    "playerResponseCodes":["sociable1","sociable2", "sociable3"]
  },
  {
    "objectCode":"SLEEP_WHY",
    "title":"Why trouble sleeping?",
    "difficulty": 1,
    "playerResponseCodes":["trauma", "stress", "anxiety"]
  },
  {
    "objectCode":"CASH_CREDIT",
    "title":"I hope you have't spent a lot of money around town. The church could use your donation.",
    "difficulty": 1,
    "playerResponseCodes":["NOT_ME","THEM"]
  },
  {
    "objectCode":"ACCUSATION",
    "title":"How dare you, blasphemer?! I will make you pay your tithe in blood!",
    "difficulty": 1,
    "playerResponseCodes":["MURDER","THEFT","INNOCENT"]
  }
]
